{
  "executionRoleArn": "arn:aws:iam::056621109465:role/ecsTaskExecutionRole",
  "containerDefinitions": [
    {
      "logConfiguration": {
        "logDriver": "awslogs",
        "options": {
          "awslogs-group": "/ecs/myapp",
          "awslogs-region": "eu-west-1",
          "awslogs-stream-prefix": "ecs"
        }
      },
      "portMappings": [
        {
          "hostPort": 3000,
          "protocol": "tcp",
          "containerPort": 3000
        }
      ],
      "command": [
        "npm",
        "start"
      ],
      "cpu": 0,
      "environment": [],
      "mountPoints": [],
      "volumesFrom": [],
      "image": "${IMAGE_NAME}",
      "essential": true,
      "name": "myapp"
    }
  ],
  "placementConstraints": [],
  "memory": "512",
  "taskRoleArn": "arn:aws:iam::056621109465:role/ecsTaskExecutionRole",
  "family": "myapp",
  "requiresCompatibilities": [
    "FARGATE"
  ],
  "networkMode": "awsvpc",
  "cpu": "256",
  "volumes": []
}